Palmer Penguins Initial Analysis
…
    third_quartile_bill_length 
    48.500000 

    standard_deviation_bill_length 
    5.459584 

Selecting specific columns and rows

We can select specific columns (using the select() function) or rows satisfying certain conditions (using the filter() function). For example, we can select only the species, island, sex, and year columns.

penguins %>%
  select(species, island, sex, year)

# A tibble: 344 × 4
   species island    sex     year
   <fct>   <fct>     <fct>  <int>
 1 Adelie  Torgersen male    2007
 2 Adelie  Torgersen female  2007
 3 Adelie  Torgersen female  2007
 4 Adelie  Torgersen <NA>    2007
 5 Adelie  Torgersen female  2007
 6 Adelie  Torgersen male    2007
 7 Adelie  Torgersen female  2007
 8 Adelie  Torgersen male    2007
 9 Adelie  Torgersen <NA>    2007
10 Adelie  Torgersen <NA>    2007
# … with 334 more rows

We can use filter() to include only Chinstrap penguins.

penguins %>%
  select(species, island, sex, year) %>%
  filter(species == "Chinstrap")

# A tibble: 68 × 4
   species   island sex     year
   <fct>     <fct>  <fct>  <int>
 1 Chinstrap Dream  female  2007
 2 Chinstrap Dream  male    2007
 3 Chinstrap Dream  male    2007
 4 Chinstrap Dream  female  2007
 5 Chinstrap Dream  male    2007
 6 Chinstrap Dream  female  2007
 7 Chinstrap Dream  female  2007
 8 Chinstrap Dream  male    2007
 9 Chinstrap Dream  female  2007
10 Chinstrap Dream  male    2007
# … with 58 more rows
…
